# Blender v2.76 (sub 0) OBJ File: 'goal.blend'
# www.blender.org
mtllib goal.mtl
o Cube
v 1.890631 0.000000 -0.482771
v 1.890631 0.000000 0.482771
v -1.890632 0.000000 0.482771
v -1.890631 0.000000 -0.482771
v 1.890632 2.000000 -0.482771
v 1.890630 2.000000 0.482772
v -1.890632 2.000000 0.482771
v -1.890631 2.000000 -0.482771
v 1.890631 0.000000 -0.482771
v 1.890631 0.000000 0.482771
v -1.890632 0.000000 0.482771
v -1.890631 0.000000 -0.482771
v 1.890632 2.000000 -0.482771
v 1.890630 2.000000 0.482772
v -1.890632 2.000000 0.482771
v -1.890631 2.000000 -0.482771
v 1.890631 0.000000 -0.482771
v 1.890631 0.000000 0.482771
v -1.890632 0.000000 0.482771
v -1.890631 0.000000 -0.482771
v 1.890632 2.000000 -0.482771
v 1.890630 2.000000 0.482772
v -1.890632 2.000000 0.482771
v -1.890631 2.000000 -0.482771
v 1.890631 0.000000 -0.482771
v 1.890631 0.000000 0.482771
v -1.890631 0.000000 -0.482771
v 1.890632 2.000000 -0.482771
v -1.890632 0.000000 0.482771
v 1.890630 2.000000 0.482772
v -1.890632 2.000000 0.482771
v -1.890631 2.000000 -0.482771
v 1.890631 0.000000 0.482771
v -1.890632 0.000000 0.482771
v 1.890630 2.000000 0.482772
v -1.890632 2.000000 0.482771
v 1.890631 0.000000 -0.181902
v -1.890632 0.000000 -0.181902
v 1.890630 2.000000 -0.181901
v -1.890632 2.000000 -0.181902
vn 0.000000 1.000000 0.000000
vn 0.000000 -1.000000 -0.000000
vn -1.000000 -0.000000 -0.000000
vn 1.000000 0.000000 0.000000
vn -0.000000 -0.000000 1.000000
vn 0.000000 0.000000 -1.000000
usemtl Material
s off
f 1//1 4//1 3//1 2//1
f 5//2 6//2 7//2 8//2
f 1//3 2//3 6//3 5//3
f 3//4 4//4 8//4 7//4
f 5//5 8//5 4//5 1//5
f 9//1 12//1 11//1 10//1
f 13//2 14//2 15//2 16//2
f 9//3 10//3 14//3 13//3
f 11//4 12//4 16//4 15//4
f 13//5 16//5 12//5 9//5
f 21//2 22//2 23//2 24//2
f 17//3 18//3 22//3 21//3
f 19//4 20//4 24//4 23//4
f 21//5 24//5 20//5 17//5
f 28//1 32//1 31//1 30//1
f 25//4 28//4 30//4 26//4
f 30//5 31//5 36//5 35//5
f 29//3 31//3 32//3 27//3
f 28//6 25//6 27//6 32//6
f 31//5 29//5 34//5 36//5
f 26//5 30//5 35//5 33//5
f 29//5 26//5 33//5 34//5
f 37//5 39//5 40//5 38//5
f 35//2 36//2 40//2 39//2
f 36//4 34//4 38//4 40//4
